…
rslt
```

    # A tibble: 24 x 10
       accrual followup alpha power    n0    n1     n    d0    d1     d
         <int>    <int> <dbl> <dbl> <dbl> <dbl> <dbl> <dbl> <dbl> <dbl>
     1       3        2   0.1   0.8  65.1  65.1 130.   35.3  21.8  57.0
     2       3        2   0.1   0.9  90.4  90.4 181.   48.9  30.2  79.1
     3       3        2   0.2   0.8  47.4  47.4  94.7  25.6  15.8  41.5
     4       3        2   0.2   0.9  69.2  69.2 138.   37.5  23.1  60.6
     5       3        3   0.1   0.8  54.3  54.3 109.   34.4  22.1  56.5
     6       3        3   0.1   0.9  75.5  75.5 151.   47.8  30.7  78.5
     7       3        3   0.2   0.8  39.5  39.5  79.0  25.0  16.1  41.1
     8       3        3   0.2   0.9  57.8  57.8 116.   36.6  23.5  60.1
     9       4        2   0.1   0.8  59.6  59.6 119.   34.8  22.0  56.7
    10       4        2   0.1   0.9  82.7  82.7 165.   48.3  30.5  78.8
    # i 14 more rows
…
